{
	"skin-name": "custom",
	"preview-bg": "#eeeeee",
	"text": "#333333",
	"text-inverse": "#ffffff",
	"text-disabled": "#aaaaaa",
	"text-error": "#aa0000",
	"has-gradients": false,
	"has-radius": false,
	"has-boxshadow": false,
	"has-button-borders": false,
	"btn-text": "#333333",
	"btn-text-shadow": "#ffffff",
	"btn-bg": "#ffffff",
	"btn-bg-hlight": "#d9d9d9",
	"btn-border-top": "transparent",
	"btn-border-right": "transparent",
	"btn-border-bottom": "transparent",
	"btn-border-left": "transparent",
	"btn-split-border": "#bdbdbd",
	"btn-primary-text": "#ffffff",
	"btn-primary-text-shadow": "#333333",
	"btn-primary-bg": "#242e3e",
	"btn-primary-bg-hlight": "#0044cc",
	"btn-padding": "4px 8px",
	"menu-bg": "#ffffff",
	"menu-border": "rgba(0,0,0,0.2)",
	"menuitem-text": "#333333",
	"menuitem-bg-selected": "#242e3e",
	"menuitem-bg-selected-hlight": "#0077b3",
	"menuitem-separator-top": "#cbcbcb",
	"menuitem-separator-bottom": "#ffffff",
	"menuitem-text-inverse": "#ffffff",
	"menuitem-bg-active": "#c8def4",
	"menuitem-text-active": "#333333",
	"menuitem-preview-border-active": "#aaaaaa",
	"menubar-menubtn-text": "#333333",
	"checkbox-border": "#c5c5c5",
	"checkbox-border-focus": "#242e3e",
	"panel-border": "#9e9e9e",
	"panel-bg": "#fdfdfd",
	"panel-bg-hlight": "#dddddd",
	"textbox-bg": "#ffffff",
	"textbox-border": "#c5c5c5",
	"textbox-border-focus": "#242e3e",
	"window-bg": "#ffffff",
	"window-border": "#c4c4c4",
	"tab-bg": "#e3e3e3",
	"tab-bg-hover": "#fdfdfd",
	"tab-bg-active": "#fdfdfd",
	"tab-border": "#c5c5c5",
	"tabs-bg": "#ffffff",
	"slider-bg": "#eeeeee",
	"slider-border": "#aaaaaa",
	"slider-handle-bg": "#dddddd",
	"slider-handle-border": "#bbbbbb",
	"progress-bar-bg": "#dfdfdf",
	"progress-bar-bg-hlight": "#cccccc",
	"progress-border": "#cccccc",
	"progress-text": "#333333",
	"progress-text-shadow": "#ffffff",
	"thumb-text": "#333333",
	"thumb-border": "#aaaaaa",
	"thumb-border-checked": "#00709f",
	"thumb-info-bg": "#333333",
	"thumb-info-text": "#ffffff",
	"thumb-checkbox-border": "#ffffff",
	"thumb-checkbox-bg": "#333333",
	"thumb-info-active-border": "rgba(82,168,236,1)"
}